Cigarette Usage Project
…
After the join, the final table has just as many observations as the two datasets used in the join, meaning that no observations were dropped. This is because both “cigar1” and “cigar2” came from the same original dataset, so all observations in the “X1” used for the join should have a match. I chose a left join, but I could have used a right join, inner join, or a full join, too. This is because there is an exact, unique match for each observation in X1, so there is not a concern for NA values.

Question 3

Use all 6 core dplyr functions (filter, select, arrange, group_by, mutate, summarize)

CigarFull <- CigarFull %>% mutate_at(c("state"),as.character)
CigarFull <- CigarFull %>%
  mutate(age_brackets = case_when(year>=90 ~ "90+", 80<=year & year<=89 ~ "80-89", 70<=year & year<=79 ~ "70-79", year<=69 ~ "60-69"))
CigarFull <- CigarFull %>% group_by(year) %>%mutate(avgprice = mean(price))
CigarFull <- CigarFull %>% mutate(prop16=pop16/pop)

CigarFull %>% group_by(year) %>% summarise(mean(sales))

## # A tibble: 30 x 2
##     year `mean(sales)`
##    <int>         <dbl>
##  1    63          127.
##  2    64          124.
##  3    65          126.
##  4    66          126.
##  5    67          126.
##  6    68          124.
##  7    69          123.
##  8    70          120.
##  9    71          123.
## 10    72          128.
## # … with 20 more rows

CigarFull%>% select(state,pop,price) %>% filter(price>mean(price)) %>%
  group_by(state) %>% arrange(desc(price))

## Adding missing grouping variables: `year`

## # A tibble: 701 x 4
## # Groups:   state [42]
##     year state    pop price
##    <int> <chr>  <dbl> <dbl>
##  1    92 5     30703.  202.
##  2    92 48     5152.  199.
##  3    92 33    18086.  198.
##  4    92 24     4496.  198.
##  5    92 29     1297.  194.
##  6    92 7      3237   194.
##  7    92 31     7799.  191.
##  8    92 40     1002   190 
##  9    92 20     1237   188.
## 10    92 9       570.  187.
## # … with 691 more rows
…
